{
  "type": "service_account",
  "project_id": "testtradehi",
  "private_key_id": "8b43b4649773851782a3d992fdc729f0a6ba8a11",
  "private_key": "-----BEGIN PRIVATE KEY-----\nMIIEvAIBADANBgkqhkiG9w0BAQEFAASCBKYwggSiAgEAAoIBAQDJydP1rJOY39Fw\n94cAYeHW0J0W6/t5cQnW+sENxvjqjvv50V/8PIRaaOv8XxdTUS3VPej0/fJDdg8L\nrIjenv2+UzL/TPsKJj1DE5X49NaXvAKLcg/vER8Ob9vllfFpIuvj5HQfp0SNj/rY\nUwvAtM5svWMQJCw0GWFoEwN59VHYpkjyLhM37LJnhfsBjIAUnRkmpiNHYpspCHsq\nWokI2INI/wEXq2HAEpynsuPBO2gLtAEjUnY/jRBN9iqkoIAlY1Z+4xtn2Os8Ur4X\nN8hNqb/NuEF/aKvOrSh0THH6bis5mOKh6msYZyFCF+mrLQujyFW3XklPXt4MyXFp\ndqsWmRv1AgMBAAECggEAJT1e5XBBtf0aUzmPO9oUmncaApyu5oDewsK4paECl5En\nPfmut+d4OpIx+PuYm6r35Sp9h1clYl9TlAE1qjYX2IvUtcqAauVXOX2QGCehQdPz\n+UWl3KYhf+HTaHmlWZSVCZQD/UJ6k5COh+U9nkUP8n/6HAS89ql3cURPCC8muW9U\nzjSUE6w7QcwYgT6IUEMEgv3pBAvmkXz14DM1VIAoNa9NnbofeErRu0Omzg80LMVl\nEuhalmSTqHXF4vqdREb/OrdiXnmfEEbXqRcSWtOvaOjSdWPIFD57GNbpODKyAWUZ\nT9imGMFoccMazgPRXMU+zH8C9ah9uzVphrh0C6r1gQKBgQDoWpXd1RKop59ROsrS\nUNJOiWWJjB/EE+FnpF4rTrI04IfW19U7V869AWvYKQpiuXQtzObeRtbQc4zPtFVN\nyX4PMGg8nhY3jOgfq0egUE232SACckg6HVRC9af3bXrvMRWPrOdbn3etXb12z/ke\nBor+stF9F9ds8YQeUIR8eilCgQKBgQDeUu8QOpTukPkuuYg83QKNp8dluMPna4VP\npIF1ZwUF9EX36QH3F467k0McuV0x60TZuom5TZcY08LzIlzFIg8Epk/hQG3Z3a1e\nKDuq9omv1qkpL/jI2styMLaw5HwbVbhFsTu5PO3W/8n6L2ebqtjiNPocjhFypb4N\nOvMxQnQ3dQKBgBzrcW3L4GenfVfh5m6o6pQl28Jz81w3UT3SInpncBzOuXmPIZYi\nRrQVojOkYAuLo58zuqR90qzdRPBxNJDa/Fqtnru0vXUqj5Wpft/APvwcBTTovn6l\nOeCfrMlKEhwFUvawAZfQ0Fd+rF9GYW5QSCqNXS+hsQl5QgV35hWMKuiBAoGAMKOw\nTbqjTrZE7eYFWlt37YnhY+3SXlT1q4DwGcFaJf1VOXGuzmJHBd6n9ibPrtYsD/5x\nlyrUfcgGhK7l4PMcmgXQwBUac2m+PjVLKJIbeW7bP3mRUlAb5nWl4nl6dXiBgi3O\nRS6BUmJPy/6HClWMcaDpf0nNo2mDdN2KyyIgzukCgYA6byPvA3N8+PZC38+2Zx1n\nbOZerusLaWE1oZLwZwoMHP2Z996n0oMb/8QcvxNfpXoDA296uxdGyJRCdnCF3zJ/\nYPhOdUDOwQHU9R5Y59yWofeCe2G6ws1es1geJR7XSqEGg2Qs9j2noJoN0KN/SsHd\n/2zFwqq1ekt7XtGF0QuU/Q==\n-----END PRIVATE KEY-----\n",
  "client_email": "firebase-adminsdk-5di2o@testtradehi.iam.gserviceaccount.com",
  "client_id": "113755509536465519573",
  "auth_uri": "https://accounts.google.com/o/oauth2/auth",
  "token_uri": "https://oauth2.googleapis.com/token",
  "auth_provider_x509_cert_url": "https://www.googleapis.com/oauth2/v1/certs",
  "client_x509_cert_url": "https://www.googleapis.com/robot/v1/metadata/x509/firebase-adminsdk-5di2o%40testtradehi.iam.gserviceaccount.com"
}
